L1,10.01001001001001
L2,23.58490566037736
L3,125.31328320802007
L4,9.25925925925926
L5,18.51851851851852
L6,48.07692307692308
L7,32.78688524590164
L8,38.02353656913629
L9,31.055900621118013
L10,14.534883720930232
L11,14.66275659824047
L12,51.02040816326531
L13,16.233766233766232
L14,6.25
L15,29.41176470588235
L16,13.679890560875513
L17,14.144271570014144
L18,4.091653027823241
L19,5.128205128205128
L20,11.990407673860911
L21,22.88329519450801
L22,5.5524708495280395
L23,19.801980198019802
L24,20.28397565922921
L25,8.547008547008547
L26,25.38071065989848
L27,11.778563015312132
L28,10.309278350515463
L29,6.289308176100628
L30,20.32520325203252
L31,12.5
L32,27.268760907504365
L33,6.134969325153374
L34,11.695906432748536
L35,10.604453870625663
L36,26.84707903780069
L37,19.841269841269842
L38,11.627906976744187
L39,6.397952655150352
L40,30.211480362537767
L41,8.673026886383347
L42,10.152284263959391
L43,13.245033112582782
L44,8.038585209003216
L45,4.048582995951417
L46,98.0392156862745
L47,20.120724346076457
L48,7.042253521126761
L49,37.3134328358209
L50,106.38297872340425
L51,28.520499108734402
L52,9.433962264150944
L53,5.952380952380952
L54,18.51851851851852
L55,16.528925619834713
L56,20.53388090349076
L57,5.46448087431694
L58,7.4074074074074066
L59,4.074979625101874
L60,5.94883997620464
L61,11.098779134295228
L62,7.374631268436579
L63,7.874015748031496
L64,5.291005291005291
L65,16.0
L66,3.095975232198142
L67,3.095975232198142
L68,5.376344086021505
L69,19.801980198019802
L70,13.297872340425531
L71,7.2992700729927
L72,17.006802721088437
L73,6.116207951070336
L74,8.19672131147541
L75,3.4602076124567476
L76,3.436426116838488
L77,14.144271570014144
L78,104.71204188481676
L79,66.2251655629139
L80,10.351966873706004
L81,7.462686567164178
L82,10.351966873706004
L83,13.908205841446453
L84,4.361098996947231
L85,3.9840637450199203
L86,4.184100418410042
L87,4.633920296570899
L88,6.8965517241379315
L89,6.666666666666667
L90,74.07407407407408
L91,17.825311942959004
L92,26.595744680851062
L93,26.986183074265977
L94,50.0
L95,37.88165770134101
L96,10.141987829614605
L97,33.11258278145695
L98,10.881392818280741
L99,10.881392818280741
L100,4.587155963302752
L101,8.547008547008547
L102,28.905911258852434
L103,9.852216748768472
L104,62.5
L105,3.599712023038157
L106,3.0864197530864197
L107,28.905911258852434
L108,7.874015748031496
L109,2.4301336573511545
L110,28.169014084507044
L111,5.1020408163265305
L112,5.555555555555555
L113,22.026431718061673
L114,7.558578987150415
L115,7.092198581560284
L116,8.19672131147541
L117,24.630541871921185
L118,6.756756756756757
L119,9.900990099009901
L120,5.002501250625313
L121,80.64516129032258
L122,40.983606557377044
L123,20.618556701030926
L124,9.523809523809524
L125,14.204545454545453
L126,49.504950495049506
L127,28.905911258852434
L128,11.723329425556859
L129,27.28512960436562
L130,7.575757575757575
L131,6.756756756756757
L132,15.600624024960997
L133,8.130081300813009
L134,4.821600771456123
L135,9.803921568627452
L136,5.780346820809249
L137,14.04494382022472
L138,5.319148936170213
L139,10.030090270812437
L140,11.961722488038278
L141,19.801980198019802
L142,6.325110689437065
L143,7.861635220125786
L144,11.79245283018868
L145,6.329113924050633
L146,13.66120218579235
L147,23.04147465437788
L148,5.4945054945054945
L149,18.867924528301888
L150,11.507479861910241
L151,10.706638115631693
L152,9.25925925925926
L153,4.8543689320388355
L154,3.3898305084745766
L155,17.241379310344826
L156,18.281535648994517
L157,11.299435028248588
L158,5.58659217877095
L159,12.300123001230013
L160,7.923930269413629
L161,17.88908765652952
L162,8.928571428571429
L163,19.047619047619047
L164,4.901960784313726
L165,6.313131313131312
L166,6.153846153846153
L167,4.366812227074235
L168,26.455026455026456
L169,18.281535648994517
L170,5.46448087431694
L171,14.22475106685633
L172,5.46448087431694
L173,34.72222222222222
L174,5.515719801434088
L175,13.123359580052492
L176,13.245033112582782
L177,15.625
L178,33.222591362126245
L179,4.926108374384236
L180,16.339869281045754
L181,13.49527665317139
L182,96.15384615384616
L183,246.9135802469136
L184,7.142857142857142
L185,20.79002079002079
L186,18.38235294117647
