0,0,0,0,0,0,0,0,0,0,0,0,0,0,0,0,0,0,0,0,0,0,0,0,0,0,0,0,0,0,0,0,0,0,0,0,0,0,0,0,0,0,0,0,0,0,0,0,0,0,0,0,0,0
0,0,0,0,0,0,0,0,0,0,0,0,0,0,0,0,0,0,0,0,0,0,0,0,0,0,0,0,0,0,0,0,0,0,0,0,0,0,0,0,0,0,0,0,0,0,0,0,0,0,0,0,0,0
0,0,0,0,0,0,0,0,0,0,0,0,0,0,0,0,0,0,0,0,0,0,0,0,0,0,0,0,0,0,0,0,0,0,0,0,0,0,0,0,0,0,0,0,0,0,0,0,0,0,0,0,0,0
0,0,0,0,0,0,0,0,0,0,0,0,0,0,0,0,0,0,0,0,0,0,0,0,0,0,0,0,0,0,0,0,0,0,0,0,0,0,0,0,0,0,0,0,0,0,0,0,0,0,0,0,0,0
0,0,0,0,0.04341812580568549,0.01129996446582869,0,0,0,0,0.02107073954956428,0.0228625595464376,0,-0.03440058961514332,0,0,0,0,0,-0.002420089774136331,-0.001024461231691706,-0.0042201502475947,0,0,-0.002279724334797127,-0.004502073965109007,0,-0.002458091284121249,-0.002970407407093194,-0.007539253182223819,0,0,0,0,0,0,-0.009093507961798822,0,6.964243519303609e-05,-0.02099846082390398,0,0,0,0,-0.01549722084632995,-0.002186120974320156,0,0,0,0,-0.0225306540499477,0,0,0
0,0,0,0,0.01129996446583463,0.08285723616199661,0,0,0,0,0.01968464225088009,0.0139386946151467,0,0.1372280070179756,0,0,0,0,0,-0.00365793898635984,-0.00655672054952016,-0.008011935148446978,0,0,-0.009026221914855311,-0.00461665336424667,0,-0.005392329035039688,-0.004670263714108717,-0.005400176875110541,0,0,0,0,0,0,-0.01246757118564109,0,-0.08485735474517059,-0.01244821050677121,0,0,0,0,-0.02494150006628119,-0.06475468455302698,0,0,0,0,-0.02220375827209581,0,0,0
0,0,0,0,0,0,0,0,0,0,0,0,0,0,0,0,0,0,0,0,0,0,0,0,0,0,0,0,0,0,0,0,0,0,0,0,0,0,0,0,0,0,0,0,0,0,0,0,0,0,0,0,0,0
0,0,0,0,0,0,0,0,0,0,0,0,0,0,0,0,0,0,0,0,0,0,0,0,0,0,0,0,0,0,0,0,0,0,0,0,0,0,0,0,0,0,0,0,0,0,0,0,0,0,0,0,0,0
0,0,0,0,0,0,0,0,0,0,0,0,0,0,0,0,0,0,0,0,0,0,0,0,0,0,0,0,0,0,0,0,0,0,0,0,0,0,0,0,0,0,0,0,0,0,0,0,0,0,0,0,0,0
0,0,0,0,0,0,0,0,0,0,0,0,0,0,0,0,0,0,0,0,0,0,0,0,0,0,0,0,0,0,0,0,0,0,0,0,0,0,0,0,0,0,0,0,0,0,0,0,0,0,0,0,0,0
0,0,0,0,0.02107073954956235,0.01968464225087161,0,0,0,0,0.02737350928644659,0.02507942994788061,0,0.01769126311341884,0,0,0,0,0,-0.002153807684225374,-0.001962230435570094,-0.004355474679072225,0,0,-0.003308896272880077,-0.00351084158051101,0,-0.002377604952299569,-0.002568633479851418,-0.005057348046157353,0,0,0,0,0,0,-0.008144809817373064,0,-0.02111358668331095,-0.01591764099941404,0,0,0,0,-0.01562368067244819,-0.0176510929114156,0,0,0,0,-0.01948263372998119,0,0,0
0,0,0,0,0.02286255954643543,0.01393869461513958,0,0,0,0,0.02507942994788072,0.02475546970106937,0,-0.006494927772344845,0,0,0,0,0,-0.001883376943585928,-0.001320197563474622,-0.003797898155184838,0,0,-0.002509334136403673,-0.003351564245007978,0,-0.001993569971688097,-0.002281867370365577,-0.005042561762656645,0,0,0,0,0,0,-0.00748992941199633,0,-0.01104926434221701,-0.01631393724887905,0,0,0,0,-0.01405650445001553,-0.01015184093067131,0,0,0,0,-0.01887198642053307,0,0,0
0,0,0,0,0,0,0,0,0,0,0,0,0,0,0,0,0,0,0,0,0,0,0,0,0,0,0,0,0,0,0,0,0,0,0,0,0,0,0,0,0,0,0,0,0,0,0,0,0,0,0,0,0,0
0,0,0,0,-0.03440058961510321,0.1372280070179555,0,0,0,0,0.01769126311344137,-0.006494927772319851,0,0.993565192933322,0,0,0,0,0,-0.00430738702223936,-0.01571581473913675,-0.01318811647038911,0,0,-0.02005866171076584,-0.003051939866759239,0,-0.009386888858230927,-0.006319523944996797,-0.000433654310779661,0,0,0,0,0,0,-0.01598560627026063,0,-0.2418798401965278,0.008506470660303557,0,0,0,0,-0.0384116624308563,-0.1802180837132953,0,0,0,0,-0.01588410325913757,0,0,0
0,0,0,0,0,0,0,0,0,0,0,0,0,0,0,0,0,0,0,0,0,0,0,0,0,0,0,0,0,0,0,0,0,0,0,0,0,0,0,0,0,0,0,0,0,0,0,0,0,0,0,0,0,0
0,0,0,0,0,0,0,0,0,0,0,0,0,0,0,0,0,0,0,0,0,0,0,0,0,0,0,0,0,0,0,0,0,0,0,0,0,0,0,0,0,0,0,0,0,0,0,0,0,0,0,0,0,0
0,0,0,0,0,0,0,0,0,0,0,0,0,0,0,0,0,0,0,0,0,0,0,0,0,0,0,0,0,0,0,0,0,0,0,0,0,0,0,0,0,0,0,0,0,0,0,0,0,0,0,0,0,0
0,0,0,0,0,0,0,0,0,0,0,0,0,0,0,0,0,0,0,0,0,0,0,0,0,0,0,0,0,0,0,0,0,0,0,0,0,0,0,0,0,0,0,0,0,0,0,0,0,0,0,0,0,0
0,0,0,0,0,0,0,0,0,0,0,0,0,0,0,0,0,0,0,0,0,0,0,0,0,0,0,0,0,0,0,0,0,0,0,0,0,0,0,0,0,0,0,0,0,0,0,0,0,0,0,0,0,0
0,0,0,0,-0.002420089774166798,-0.003657938986372645,0,0,0,0,-0.002153807684261208,-0.001883376943619638,0,-0.004307387022200319,0,0,0,0,0,0.0327258598967957,0.007080201870669102,0.004598951680982752,0,0,0.002600123851794126,0.002686789238435375,0,0.002464708192870093,0.00372131426874019,0.001760468389584203,0,0,0,0,0,0,-0.0001729334951892223,0,-0.0006008882065857476,-0.005305625193062412,0,0,0,0,-0.003785623351140326,-0.001517388278699221,0,0,0,0,-0.006532653943700369,0,0,0
0,0,0,0,-0.001024461231693421,-0.0065567205495216,0,0,0,0,-0.001962230435574628,-0.001320197563478319,0,-0.01571581473914795,0,0,0,0,0,0.007080201870665825,0.01221245998228089,0.006367140751833795,0,0,0.004585600610529389,0.002521162567018472,0,0.003131231307204864,0.003976023018823649,0.001514212600933096,0,0,0,0,0,0,0.00023433323098465,0,-0.008740225782162219,-0.004008301094844435,0,0,0,0,-0.004090219483616351,-0.007488430503967389,0,0,0,0,-0.005776425957377273,0,0,0
0,0,0,0,-0.004220150247595397,-0.008011935148446645,0,0,0,0,-0.004355474679073835,-0.003797898155186321,0,-0.01318811647038333,0,0,0,0,0,0.004598951680976776,0.00636714075183326,0.01779932217794608,0,0,0.007820699606762191,0.004395856635142964,0,0.002974943068971605,0.003396206045317863,0.001896636171816843,0,0,0,0,0,0,0.0002968705297018862,0,-0.00509984571004869,-0.004346544981375365,0,0,0,0,-0.003763248221830995,-0.00482557997214174,0,0,0,0,-0.005914022158126742,0,0,0
0,0,0,0,0,0,0,0,0,0,0,0,0,0,0,0,0,0,0,0,0,0,0,0,0,0,0,0,0,0,0,0,0,0,0,0,0,0,0,0,0,0,0,0,0,0,0,0,0,0,0,0,0,0
0,0,0,0,0,0,0,0,0,0,0,0,0,0,0,0,0,0,0,0,0,0,0,0,0,0,0,0,0,0,0,0,0,0,0,0,0,0,0,0,0,0,0,0,0,0,0,0,0,0,0,0,0,0
0,0,0,0,-0.00227972433479501,-0.009026221914847863,0,0,0,0,-0.0033088962728773,-0.002509334136401615,0,-0.02005866171074586,0,0,0,0,0,0.002600123851788846,0.004585600610527794,0.007820699606761071,0,0,0.01274097183659116,0.005191631320002011,0,0.003726227874959639,0.003255778087096382,0.002006366042284762,0,0,0,0,0,0,0.001106436044132819,0,-0.005834553851603512,-0.003228896016497305,0,0,0,0,-0.002921318439301537,-0.005283205411522768,0,0,0,0,-0.004698257316255668,0,0,0
0,0,0,0,-0.004502073965102028,-0.004616653364241403,0,0,0,0,-0.003510841580504599,-0.003351564245001731,0,-0.00305193986675516,0,0,0,0,0,0.00268678923842642,0.002521162567017093,0.004395856635141437,0,0,0.005191631320001839,0.008280282250679363,0,0.003619382759612413,0.003689194644716227,0.00317311342055676,0,0,0,0,0,0,0.001796577779925803,0,0.001954846260543461,-0.002338366437285471,0,0,0,0,-0.001079249224632338,0.0005703299092710296,0,0,0,0,-0.003276902392082389,0,0,0
0,0,0,0,0,0,0,0,0,0,0,0,0,0,0,0,0,0,0,0,0,0,0,0,0,0,0,0,0,0,0,0,0,0,0,0,0,0,0,0,0,0,0,0,0,0,0,0,0,0,0,0,0,0
0,0,0,0,-0.002458091284117187,-0.005392329035033098,0,0,0,0,-0.002377604952294977,-0.001993569971684046,0,-0.009386888858214908,0,0,0,0,0,0.002464708192863199,0.003131231307203462,0.002974943068970337,0,0,0.003726227874959589,0.003619382759612663,0,0.003705626983978736,0.003843945256269793,0.002961509404160262,0,0,0,0,0,0,0.002072843232546884,0,0.0002302212403896982,-0.001877184321327699,0,0,0,0,-0.0009215273775122474,-0.0006675554840139789,0,0,0,0,-0.002804333620271861,0,0,0
0,0,0,0,-0.00297040740708864,-0.00467026371410371,0,0,0,0,-0.002568633479847347,-0.002281867370361738,0,-0.006319523944987302,0,0,0,0,0,0.003721314268732701,0.003976023018822362,0.003396206045316636,0,0,0.003255778087096325,0.003689194644716447,0,0.003843945256269748,0.005493798758722799,0.002889453788305897,0,0,0,0,0,0,0.001781470279401944,0,0.0007627360689352438,-0.00230478941286614,0,0,0,0,-0.001212721203279949,-0.0002945702155784072,0,0,0,0,-0.003271926477558105,0,0,0
0,0,0,0,-0.007539253182209747,-0.005400176875100228,0,0,0,0,-0.005057348046142996,-0.005042561762642556,0,-0.000433654310776542,0,0,0,0,0,0.001760468389566527,0.00151421260093103,0.001896636171814188,0,0,0.002006366042284539,0.003173113420557184,0,0.002961509404159886,0.002889453788305837,0.006796549360954664,0,0,0,0,0,0,0.003386353010772097,0,0.002833538514281086,0.001499814026889877,0,0,0,0,0.001846098720307486,0.001679087693726216,0,0,0,0,0.0008539431768691695,0,0,0
0,0,0,0,0,0,0,0,0,0,0,0,0,0,0,0,0,0,0,0,0,0,0,0,0,0,0,0,0,0,0,0,0,0,0,0,0,0,0,0,0,0,0,0,0,0,0,0,0,0,0,0,0,0
0,0,0,0,0,0,0,0,0,0,0,0,0,0,0,0,0,0,0,0,0,0,0,0,0,0,0,0,0,0,0,0,0,0,0,0,0,0,0,0,0,0,0,0,0,0,0,0,0,0,0,0,0,0
0,0,0,0,0,0,0,0,0,0,0,0,0,0,0,0,0,0,0,0,0,0,0,0,0,0,0,0,0,0,0,0,0,0,0,0,0,0,0,0,0,0,0,0,0,0,0,0,0,0,0,0,0,0
0,0,0,0,0,0,0,0,0,0,0,0,0,0,0,0,0,0,0,0,0,0,0,0,0,0,0,0,0,0,0,0,0,0,0,0,0,0,0,0,0,0,0,0,0,0,0,0,0,0,0,0,0,0
0,0,0,0,0,0,0,0,0,0,0,0,0,0,0,0,0,0,0,0,0,0,0,0,0,0,0,0,0,0,0,0,0,0,0,0,0,0,0,0,0,0,0,0,0,0,0,0,0,0,0,0,0,0
0,0,0,0,0,0,0,0,0,0,0,0,0,0,0,0,0,0,0,0,0,0,0,0,0,0,0,0,0,0,0,0,0,0,0,0,0,0,0,0,0,0,0,0,0,0,0,0,0,0,0,0,0,0
0,0,0,0,-0.009093507961794627,-0.01246757118563208,0,0,0,0,-0.008144809817367711,-0.007489929411991635,0,-0.01598560627023943,0,0,0,0,0,-0.000172933495203597,0.0002343332309825432,0.0002968705297004075,0,0,0.001106436044133611,0.001796577779927689,0,0.002072843232548129,0.001781470279403058,0.003386353010776142,0,0,0,0,0,0,0.008299807942435261,0,0.01328067100744689,0.006201872249267131,0,0,0,0,0.007864110397250731,0.009717197641706216,0,0,0,0,0.007084901591664699,0,0,0
0,0,0,0,0,0,0,0,0,0,0,0,0,0,0,0,0,0,0,0,0,0,0,0,0,0,0,0,0,0,0,0,0,0,0,0,0,0,0,0,0,0,0,0,0,0,0,0,0,0,0,0,0,0
0,0,0,0,6.964243518341184e-05,-0.08485735474515776,0,0,0,0,-0.02111358668331575,-0.01104926434222285,0,-0.2418798401965049,0,0,0,0,0,-0.0006008882065961351,-0.008740225782165968,-0.005099845710047663,0,0,-0.005834553851595668,0.001954846260548363,0,0.0002302212403972085,0.0007627360689402207,0.002833538514291412,0,0,0,0,0,0,0.01328067100745611,0,0.8891527852008073,0.01791165741340216,0,0,0,0,0.04153213039150529,0.1199002935189569,0,0,0,0,0.0289926368152498,0,0,0
0,0,0,0,-0.02099846082390425,-0.01244821050676612,0,0,0,0,-0.01591764099941424,-0.0163139372488794,0,0.008506470660322007,0,0,0,0,0,-0.005305625193083113,-0.004008301094846538,-0.004346544981376209,0,0,-0.003228896016496022,-0.002338366437281139,0,-0.001877184321324849,-0.002304789412863563,0.001499814026900169,0,0,0,0,0,0,0.006201872249270469,0,0.01791165741339743,0.0364773536231104,0,0,0,0,0.0183011880493098,0.008646312806411652,0,0,0,0,0.02106900348442228,0,0,0
0,0,0,0,0,0,0,0,0,0,0,0,0,0,0,0,0,0,0,0,0,0,0,0,0,0,0,0,0,0,0,0,0,0,0,0,0,0,0,0,0,0,0,0,0,0,0,0,0,0,0,0,0,0
0,0,0,0,0,0,0,0,0,0,0,0,0,0,0,0,0,0,0,0,0,0,0,0,0,0,0,0,0,0,0,0,0,0,0,0,0,0,0,0,0,0,0,0,0,0,0,0,0,0,0,0,0,0
0,0,0,0,0,0,0,0,0,0,0,0,0,0,0,0,0,0,0,0,0,0,0,0,0,0,0,0,0,0,0,0,0,0,0,0,0,0,0,0,0,0,0,0,0,0,0,0,0,0,0,0,0,0
0,0,0,0,0,0,0,0,0,0,0,0,0,0,0,0,0,0,0,0,0,0,0,0,0,0,0,0,0,0,0,0,0,0,0,0,0,0,0,0,0,0,0,0,0,0,0,0,0,0,0,0,0,0
0,0,0,0,-0.0154972208463333,-0.02494150006627855,0,0,0,0,-0.01562368067245223,-0.01405650445001928,0,-0.03841166243085058,0,0,0,0,0,-0.00378562335115734,-0.004090219483617905,-0.003763248221830502,0,0,-0.002921318439298047,-0.001079249224627466,0,-0.0009215273775079391,-0.0012127212032764,0.001846098720317899,0,0,0,0,0,0,0.007864110397256284,0,0.04153213039150674,0.01830118804931231,0,0,0,0,0.0302078473227048,0.04405485411488181,0,0,0,0,0.02984194338984167,0,0,0
0,0,0,0,-0.002186120974334592,-0.06475468455308402,0,0,0,0,-0.01765109291144641,-0.01015184093069267,0,-0.1802180837135354,0,0,0,0,0,-0.001517388278701826,-0.007488430503958946,-0.004825579972130423,0,0,-0.00528320541150348,0.0005703299092811422,0,-0.0006675554839989863,-0.0002945702155673063,0.001679087693743409,0,0,0,0,0,0,0.009717197641728782,0,0.1199002935190413,0.008646312806424326,0,0,0,0,0.04405485411490424,0.184521402537363,0,0,0,0,0.04331787898678871,0,0,0
0,0,0,0,0,0,0,0,0,0,0,0,0,0,0,0,0,0,0,0,0,0,0,0,0,0,0,0,0,0,0,0,0,0,0,0,0,0,0,0,0,0,0,0,0,0,0,0,0,0,0,0,0,0
0,0,0,0,0,0,0,0,0,0,0,0,0,0,0,0,0,0,0,0,0,0,0,0,0,0,0,0,0,0,0,0,0,0,0,0,0,0,0,0,0,0,0,0,0,0,0,0,0,0,0,0,0,0
0,0,0,0,0,0,0,0,0,0,0,0,0,0,0,0,0,0,0,0,0,0,0,0,0,0,0,0,0,0,0,0,0,0,0,0,0,0,0,0,0,0,0,0,0,0,0,0,0,0,0,0,0,0
0,0,0,0,0,0,0,0,0,0,0,0,0,0,0,0,0,0,0,0,0,0,0,0,0,0,0,0,0,0,0,0,0,0,0,0,0,0,0,0,0,0,0,0,0,0,0,0,0,0,0,0,0,0
0,0,0,0,-0.0225306540500055,-0.02220375827213937,0,0,0,0,-0.01948263373004714,-0.01887198642059478,0,-0.01588410325914753,0,0,0,0,0,-0.006532653943709223,-0.005776425957369755,-0.005914022158112941,0,0,-0.004698257316241066,-0.003276902392061354,0,-0.002804333620254179,-0.003271926477540854,0.0008539431769108597,0,0,0,0,0,0,0.007084901591698273,0,0.02899263681529218,0.02106900348446246,0,0,0,0,0.02984194338987798,0.0433178789868031,0,0,0,0,0.09524075417547181,0,0,0
0,0,0,0,0,0,0,0,0,0,0,0,0,0,0,0,0,0,0,0,0,0,0,0,0,0,0,0,0,0,0,0,0,0,0,0,0,0,0,0,0,0,0,0,0,0,0,0,0,0,0,0,0,0
0,0,0,0,0,0,0,0,0,0,0,0,0,0,0,0,0,0,0,0,0,0,0,0,0,0,0,0,0,0,0,0,0,0,0,0,0,0,0,0,0,0,0,0,0,0,0,0,0,0,0,0,0,0
0,0,0,0,0,0,0,0,0,0,0,0,0,0,0,0,0,0,0,0,0,0,0,0,0,0,0,0,0,0,0,0,0,0,0,0,0,0,0,0,0,0,0,0,0,0,0,0,0,0,0,0,0,0
