L1,B1
L2,B1
L3,B4
L4,B3
L5,B5
L6,B6
L7,B8
L8,B8
L9,B9
L10,B4
L11,B5
L12,B11
L13,B2
L14,B3
L15,B7
L16,B11
L17,B12
L18,B13
L19,B14
L20,B12
L21,B15
L22,B16
L23,B17
L24,B18
L25,B19
L26,B15
L27,B20
L28,B21
L29,B22
L30,B23
L31,B23
L32,B26
L33,B25
L34,B27
L35,B28
L36,B30
L37,B8
L38,B26
L39,B17
L40,B29
L41,B23
L42,B31
L43,B27
L44,B15
L45,B19
L46,B35
L47,B35
L48,B33
L49,B34
L50,B34
L51,B38
L52,B37
L53,B37
L54,B30
L55,B39
L56,B40
L57,B40
L58,B41
L59,B43
L60,B34
L61,B44
L62,B45
L63,B46
L64,B46
L65,B47
L66,B42
L67,B42
L68,B45
L69,B48
L70,B49
L71,B49
L72,B51
L73,B52
L74,B53
L75,B49
L76,B49
L77,B54
L78,B54
L79,B55
L80,B56
L81,B50
L82,B56
L83,B51
L84,B54
L85,B56
L86,B56
L87,B55
L88,B59
L89,B59
L90,B60
L91,B60
L92,B61
L93,B63
L94,B63
L95,B64
L96,B38
L97,B64
L98,B49
L99,B49
L100,B62
L101,B62
L102,B65
L103,B66
L104,B65
L105,B47
L106,B49
L107,B68
L108,B69
L109,B24
L110,B70
L111,B24
L112,B71
L113,B71
L114,B70
L115,B70
L116,B69
L117,B74
L118,B76
L119,B69
L120,B75
L121,B77
L122,B78
L123,B77
L124,B77
L125,B79
L126,B68
L127,B81
L128,B77
L129,B82
L130,B83
L131,B83
L132,B84
L133,B85
L134,B86
L135,B85
L136,B85
L137,B88
L138,B89
L139,B89
L140,B90
L141,B89
L142,B89
L143,B91
L144,B92
L145,B92
L146,B93
L147,B94
L148,B80
L149,B82
L150,B94
L151,B80
L152,B80
L153,B80
L154,B92
L155,B94
L156,B95
L157,B96
L158,B98
L159,B99
L160,B100
L161,B92
L162,B101
L163,B100
L164,B100
L165,B103
L166,B103
L167,B100
L168,B104
L169,B105
L170,B105
L171,B105
L172,B106
L173,B108
L174,B103
L175,B109
L176,B110
L177,B110
L178,B17
L179,B32
L180,B32
L181,B27
L182,B114
L183,B68
L184,B12
L185,B75
L186,B76
