150,223.45,299.35,375.65,452.8,452.41,449.82,451.23,450.09,447.52,443.97,444.01,470,470,390,365.69,376.48,452.01,374.55,451.79,451.39,373.25,298.52,299.14
222.8,219.86,219.29,219.79,222.27,302.27,305.63,309.53,389.53,391.5,434.08,460,440.57,445.3,389.53,309.53,229.53,309.53,389.53,460,382.09,302.09,222.09,142.09
178.97,174.92,250.79,279.55,284.54,281.51,269.4,293.61,292.16,288.29,283.77,315.77,340,340,302.46,286.64,290.36,293.3,293.58,310.3,304.05,291.85,268.14,251.97
60,60,60,60,60,84.65,121.45,171.45,221.45,271.45,300,300,271.45,221.45,171.45,121.45,71.453,120.42,170.42,220.42,170.42,120.42,70.415,60
73,73,73,121.32,120.42,170.42,220.21,219.23,218.56,219.51,219.47,217.48,167.48,168.89,188.71,138.71,170.28,120.28,169.37,219.37,227.8,177.8,127.8,77.803
118.9,122.74,122.82,121.66,119.37,122.18,121.22,118.17,117.37,157.46,160,160,110,60,110,107.93,119.65,118.81,141.02,160,160,117.54,118.65,119.78
124.89,130,130,129.86,126.14,127.49,130.05,124.79,123.91,130,130.09,127.01,97.015,67.015,97.015,118.37,126.45,125.51,124.9,130,130,124,125.31,126.42
47,47,47,47,47,47,47,51.595,81.595,111.59,120,120,120,120,90,60,47,47,77,71.405,69.714,77,47,47
20,20,20,20,20,20,20,20,20,50,55.216,80,50,20,20,20,20,20,20,50,20,20,20,20
55,55,55,55,55,55,55,55,55,55,55,55,55,55,55,55,55,55,55,55,55,55,55,55
